allycode,score,tier,effort,leader,unit1,unit2,unit3,unit4,omicron,zeta,tier_score_0,tier_note_0,extrapolate_tier_0,tier_score_1,tier_note_1,extrapolate_tier_1,tier_score_2,tier_note_2,extrapolate_tier_2,tier_score_3,tier_note_3,extrapolate_tier_3,tier_score_4,tier_note_4,extrapolate_tier_4,tier_score_5,tier_note_5,extrapolate_tier_5,tier_score_6,tier_note_6,extrapolate_tier_6,tier_score_7,tier_note_7,extrapolate_tier_7
521453859,1800000,5,3,LUMINARAUNDULI,KITFISTO,QUIGONJINN,GRANDMASTERYODA,PLOKOON,,leaderskill_LUMINARAUNDULI,,,,,,,,,,,,,,,,,,,,,,,,
521453859,1800000,5,3,KELLERANBEQ,SHAAKTI,KIADIMUNDI,MACEWINDU,AAYLASECURA,,,,,,,,,,,,,,,,,,,,,,,,,,
521453859,1800000,5,3,MAUL,NUTEGUNRAY,DARTHSIDIOUS,,,,leaderskill_MAUL,,,,,,,,,,,,,,,,,,,,,,,,
521453859,1800000,5,3,QUEENAMIDALA,MASTERQUIGON,PADAWANOBIWAN,R2D2_LEGENDARY,,,,,,,,,,,,,,,,,,,,,,,,,,,
698277294,105000,0,2,LUMINARAUNDULI,GRANDMASTERYODA,QUIGONJINN,KITFISTO,MACEWINDU,,leaderskill_LUMINARAUNDULI,,,,,,,,,,,,,,,,,,,,,,,,
698277294,169000,0,2,LUMINARAUNDULI,JEDIKNIGHTCONSULAR,QUIGONJINN,KITFISTO,MACEWINDU,,leaderskill_LUMINARAUNDULI,,,,,,,,,,,,,,,,,,,,,,,,
514798655,1200000,4,3,LUMINARAUNDULI,KITFISTO,QUIGONJINN,PLOKOON,KIADIMUNDI,,leaderskill_LUMINARAUNDULI,,,,,,,,,,,,,,,,,,,,,,,,
514798655,180000,2,3,MACEWINDU,GRANDMASTERYODA,SHAAKTI,AAYLASECURA,PADAWANOBIWAN,,,,,,,,,,,,,,,,,,,,,,,,,,
514798655,390000,1,3,MACEWINDU,GRANDMASTERYODA,SHAAKTI,AAYLASECURA,PADAWANOBIWAN,,,,,,,,,,,,,,,,,,,,,,,,,,
514798655,258000,1,3,SHAAKTI,GRANDMASTERYODA,KIADIMUNDI,EETHKOTH,MACEWINDU,,,,,,,,,,,,,,,,,,,,,,,,,,
497783385,1398000,5,2,MAUL,DARTHSIDIOUS,NUTEGUNRAY,,,,leaderskill_MAUL,,,,,,,,,,,,,,,,,,,,,,,,
497783385,780000,3,2,QUEENAMIDALA,PADAWANOBIWAN,MASTERQUIGON,,,,,,,,,,,,,,,,,,,,,,,,,,,,
497783385,300000,0,2,KELLERANBEQ,KIADIMUNDI,GRANDMASTERYODA,MACEWINDU,SHAAKTI,,,,,,,,,,,,,,,,,,,,,,,,,,
497783385,450000,1,2,LUMINARAUNDULI,QUIGONJINN,AAYLASECURA,PLOKOON,KITFISTO,,leaderskill_LUMINARAUNDULI,,,,,,,,,,,,,,,,,,,,,,,,
514798655,900000,3,3,MAUL,DARTHSIDIOUS,NUTEGUNRAY,,,,,,,,,,,,,,,,,,,,,,,,,,,,
859371596,560000,4,2,B2SUPERBATTLEDROID,DARTHSIDIOUS,MAUL,B1BATTLEDROIDV2,MAGNAGUARD,,,,,,,,,,,,,,,,,,,,,,,,,,
859371596,780000,3,2,B2SUPERBATTLEDROID,DARTHSIDIOUS,MAUL,B1BATTLEDROIDV2,MAGNAGUARD,,,,,,,,,,,,,,,,,,,,,,,,,,
859371596,675000,3,2,MAUL,DARTHSIDIOUS,NUTEGUNRAY,,,,leaderskill_MAUL,,,,,,,,,,,,,,,,,,,,,,,,
859371596,300000,0,2,KELLERANBEQ,QUIGONJINN,PADAWANOBIWAN,MASTERQUIGON,SHAAKTI,,,,,,,,,,,,,,,,,,,,,,,,,,
695797258,253500,1,1,B2SUPERBATTLEDROID,B1BATTLEDROIDV2,MAGNAGUARD,DROIDEKA,R2D2_LEGENDARY,,,,,,,,,,,,,,,,,,,,,,,,,,
695797258,450000,1,1,MAUL,NUTEGUNRAY,DARTHSIDIOUS,JEDIKNIGHTCONSULAR,JEDIKNIGHTGUARDIAN,,,,,,,,,,,,,,,,,,,,,,,,,,
695797258,450000,1,1,LUMINARAUNDULI,AAYLASECURA,KITFISTO,GRANDMASTERYODA,PLOKOON,,leaderskill_LUMINARAUNDULI,,,,,,,,,,,,,,,,,,,,,,,,
695797258,300000,0,1,KELLERANBEQ,QUIGONJINN,MACEWINDU,KIADIMUNDI,SHAAKTI,,,,,,,,,,,,,,,,,,,,,,,,,,
695797258,157000,0,1,BOSSNASS,CAPTAINTARPALS,BOOMADIER,GUNGANPHALANX,,,,,,,,,,,,,,,,,,,,,,,,,,,
853448431,920000,4,3,B2SUPERBATTLEDROID,DARTHSIDIOUS,MAUL,DROIDEKA,MAGNAGUARD,,,,,,,,,,,,,,,,,,,,,,,,,,
853448431,880000,4,3,B2SUPERBATTLEDROID,DARTHSIDIOUS,MAUL,DROIDEKA,MAGNAGUARD,,,,,,,,,,,,,,,,,,,,,,,,,,
853448431,880000,4,3,B2SUPERBATTLEDROID,DARTHSIDIOUS,MAUL,DROIDEKA,MAGNAGUARD,,,,,,,,,,,,,,,,,,,,,,,,,,
853448431,880000,4,3,B2SUPERBATTLEDROID,DARTHSIDIOUS,MAUL,DROIDEKA,MAGNAGUARD,,,,,,,,,,,,,,,,,,,,,,,,,,
853448431,900000,4,3,B2SUPERBATTLEDROID,DARTHSIDIOUS,MAUL,DROIDEKA,MAGNAGUARD,,,,,,,,,,,,,,,,,,,,,,,,,,
853448431,800000,4,2,BOSSNASS,CAPTAINTARPALS,BOOMADIER,GUNGANPHALANX,,,,,,,,,,,,,,,,,,,,,,,,,,,
853448431,1200000,4,3,BOSSNASS,CAPTAINTARPALS,BOOMADIER,GUNGANPHALANX,,,,,,,,,,,,,,,,,,,,,,,,,,,
546434697,348000,4,1,B2SUPERBATTLEDROID,DARTHSIDIOUS,MAUL,B1BATTLEDROIDV2,MAGNAGUARD,,,,,,,,,,,,,,,,,,,,,,,,,,
546434697,268000,4,1,B2SUPERBATTLEDROID,DARTHSIDIOUS,MAUL,B1BATTLEDROIDV2,MAGNAGUARD,,,,,,,,,,,,,,,,,,,,,,,,,,
546434697,880000,4,1,B2SUPERBATTLEDROID,DARTHSIDIOUS,MAUL,B1BATTLEDROIDV2,MAGNAGUARD,,,,,,,,,,,,,,,,,,,,,,,,,,
546434697,256000,4,1,JEDIKNIGHTCONSULAR,GRANDMASTERYODA,KELLERANBEQ,AAYLASECURA,EETHKOTH,,,,,,,,,,,,,,,,,,,,,,,,,,
546434697,84000,4,1,JEDIKNIGHTCONSULAR,GRANDMASTERYODA,KELLERANBEQ,AAYLASECURA,EETHKOTH,,,,,,,,,,,,,,,,,,,,,,,,,,
546434697,108000,4,1,JEDIKNIGHTCONSULAR,GRANDMASTERYODA,KELLERANBEQ,AAYLASECURA,EETHKOTH,,,,,,,,,,,,,,,,,,,,,,,,,,