{
    "rotetb": {
        "type": "text",
        "data": "Check out the Rise of the Empire TB Guide from Wookiees Always Win. Planets on the first page can be clicked on: https://1drv.ms/b/s!Avk-f1dDbVNfarDaKlBxwB9VGwo?e=XoXU2y\r\n\r\nQuestions, comments and suggestions? Discuss on our WookieeTools server or drop a message to ciiidr#8777."
    },
    "kam": {
        "type": "file",
        "data": "./src/guides/WAW-Reek-Flowchart.png"
    },
    "jkr_slkr": {
        "type": "file",
        "data": "./src/guides/Beat-SLKR-with-JKR+JKL.png"
    },
    "lstb": {
        "type": "text",
        "data": "Check out Ferret Man's amazing Light Side Geo TB Guide: https://docs.google.com/document/u/1/d/e/2PACX-1vQLtybgza_QU8bJvYTqyeXNaWuaVsSvqQWdC_E5TpoUEdF9U5SmYauwKk8rs_EhDA/pub\r\n\r\nQuestions or comments? Feel free to reach out to him on Discord: ferretman#7683."
    },
    "dstb": {
        "type": "text",
        "data": "Check out Ferret Man's amazing Dark Side Geo TB Guide: https://docs.google.com/document/d/e/2PACX-1vSieQuoe3DH-N4BzhF4xE8zKz_ChSctMaBWaZfHpH5EFIVnoWmmEXlmhggCMnFduQ/pub\r\n\r\nQuestions or comments? Feel free to reach out to him on Discord: ferretman#7683."
    }
}