{
    "phrases":
    [
        "Dis is nutsen!",
        "Hard jobbin!",
        "Me no know :shrug:",
        "My forgotten!",
        "Oh, fiddlesticks!",
        "Was'n dat?",
        "Wesa free!",
        "Yousa point is well seen.",
        "Yousa tinking yousa people ganna die?",
        "May da mystical energy be wit yousa!",
        "Meesa day startin' pretty okee-day witda brisky morning munchen.",
        "Gungans no liken outsiders, so don't spect a warm welcome.",
        "How wude!",
        "Senators, Dellow Felagates.",
        "Wesa got a grand army.",
        "Ex-squeeze me, but de mostest safest place would be Gunga City.",
        "Oh my goodness, hata-hata!",
        "Mesa clumsy like a klutz in a bongo.",
        "Goober weather today, meesa thinkin' it's gonna rain banthas.",
        "Why dude da Gungan cross da stickgooshy? Ta get tooda udder side, meesa guess!",
        "Meesa tried ta catch a gooberfish, buta it swam away faster dan a podracer!",
        "Meesa heard a droid say, 'May the Force be with you.' Meesa replied, 'And also with yousa!'",
        "Why dude da Gungan take a speeder tooda underwater party? Becausen it was a bongo bash!",
        "Meesa accidentally stepped on a frog. It said, 'Ouch, that's un-Gunganly behavior!'",
        "Meesa tried ta teach mesa pet kaadu ta sing. It jusa croaked!",
        "Why dude da Gungan become a chef? Becausen hesa wanted ta make bombad Goober soup!",
        "Mesa confused. How does WookieeBot know howta spake Gungan?",
        "Meesa clumsy",
        "Oh no, big doo-doo dis time!",
        "Meesa feelin' like a soggy bantha.",
        "Pretty pretty!",
        "Meesa seen betta.",
        "Meesa belly rumblin' like a ronto.",
        "Meesa need a drink from da swamp.",
        "Meesa ready for a long snooze in da grass.",
        "Meesa shakin' like a leaf in da wind.",
        "Meesa heard dem Jedi are wise and stuff."
    ],
    "words":
    [
        { "key": "adding", "value": "adden" },
        { "key": "afraid", "value": "fraid" },
        { "key": "all of", "value": "alla" },
        { "key": "all", "value": "alla" },
        { "key": "Anakin", "value": "Annie" },
        { "key": "our", "value": "are-sa" },
        { "key": "arrive", "value": "arriven" },
        { "key": "eight", "value": "ate-a" },
        { "key": "accident", "value": "axadent" },
        { "key": "accidents", "value": "axadentes" },
        { "key": "back", "value": "backin" },
        { "key": "begging", "value": "beggen'" },
        { "key": "being", "value": "bein" },
        { "key": "very", "value": "berry" },
        { "key": "be", "value": "besa" },
        { "key": "big", "value": "biggen" },
        { "key": "blaming", "value": "blamen'" },
        { "key": "energy ball", "value": "bodooka" },
        { "key": "superb", "value": "bombad" },
        { "key": "boom", "value": "boomba" },
        { "key": "mistake", "value": "boopjak" },
        { "key": "but", "value": "boot" },
        { "key": "boys", "value": "boyos" },
        { "key": "bringing", "value": "bringen'" },
        { "key": "brisk", "value": "brisky" },
        { "key": "broke", "value": "broke-ed" },
        { "key": "busting", "value": "busten" },
        { "key": "droids", "value": "clankers" },
        { "key": "droid", "value": "clanker" },
        { "key": "robots", "value": "clankers" },
        { "key": "robot", "value": "clanker" },
        { "key": "bots", "value": "clankers" },
        { "key": "bot", "value": "clanker" },
        { "key": "clean", "value": "cleansa" },
        { "key": "learning", "value": "learnen" },
        { "key": "coming", "value": "comen" },
        { "key": "crashed", "value": "crash-ed" },
        { "key": "creating", "value": "creatin'" },
        { "key": "called", "value": "culled" },
        { "key": "the", "value": "da" },
        { "key": "there", "value": "dare" },
        { "key": "theres", "value": "dares" },
        { "key": "there's", "value": "dares" },
        { "key": "that", "value": "dat" },
        { "key": "that's", "value": "dat's" },
        { "key": "three", "value": "dee" },
        { "key": "then", "value": "den" },
        { "key": "dying", "value": "die'n" },
        { "key": "this", "value": "dis" },
        { "key": "this is", "value": "dissen" },
        { "key": "landspeeder", "value": "doopeewee" },
        { "key": "speeder", "value": "doopeewee" },
        { "key": "motorcycle", "value": "doopeewee" },
        { "key": "bike", "value": "doopeewee" },
        { "key": "did", "value": "dude" },
        { "key": "don't", "value": "do notsa" },
        { "key": "dont", "value": "do notsa" },
        { "key": "do not", "value": "do notsa" },
        { "key": "not", "value": "notsa" },
        { "key": "did", "value": "dude" },
        { "key": "two", "value": "duey" },
        { "key": "bench", "value": "ecouch'ee" },
        { "key": "chair", "value": "ecouch'ee" },
        { "key": "excuse", "value": "ex-squeeze" },
        { "key": "binoculars", "value": "farseein'" },
        { "key": "floor", "value": "feetwalkee" },
        { "key": "floors", "value": "feetwalken" },
        { "key": "five", "value": "fife" },
        { "key": "fire", "value": "opadda" },
        { "key": "food", "value": "nosh" },
        { "key": "four", "value": "foosa" },
        { "key": "going to", "value": "ganna" },
        { "key": "gonna", "value": "ganna" },
        { "key": "sky", "value": "ganya" },
        { "key": "garbage", "value": "garbareeno" },
        { "key": "trash", "value": "garbareeno" },
        { "key": "stove", "value": "gasser" },
        { "key": "getting", "value": "getten'" },
        { "key": "go", "value": "goen'" },
        { "key": "going", "value": "goen'" },
        { "key": "grabbing", "value": "grabben'" },
        { "key": "council", "value": "grandee-oola" },
        { "key": "grand", "value": "grandee" },
        { "key": "overly", "value": "grossly" },
        { "key": "god", "value": "oma-oma" },
        { "key": "gods", "value": "guds" },
        { "key": "here", "value": "hair" },
        { "key": "oh my", "value": "hata hata" },
        { "key": "oh my goodness", "value": "hata hata" },
        { "key": "goodness", "value": "hata hata" },
        { "key": "help", "value": "hep" },
        { "key": "he", "value": "hesa" },
        { "key": "he is", "value": "hesa" },
        { "key": "hey", "value": "heyo" },
        { "key": "hello", "value": "heyo-dalee" },
        { "key": "his", "value": "hisen" },
        { "key": "great", "value": "hot" },
        { "key": "good", "value": "hot" },
        { "key": "how are", "value": "howsa" },
        { "key": "how", "value": "howsa" },
        { "key": "wind", "value": "huffmaker" },
        { "key": "huge", "value": "huge-o" },
        { "key": "invitation", "value": "invitateon" },
        { "key": "invite", "value": "invitate" },
        { "key": "it is", "value": "issa" },
        { "key": "it's", "value": "issa" },
        { "key": "its", "value": "issa" },
        { "key": "work", "value": "jobbin'" },
        { "key": "working", "value": "jobbin'" },
        { "key": "works", "value": "jobben" },
        { "key": "just", "value": "jus" },
        { "key": "worked", "value": "dude jobbin'" },
        { "key": "good manners", "value": "keeclumbsee" },
        { "key": "manners", "value": "keeclumbsee" },
        { "key": "knowing", "value": "knowin'" },
        { "key": "like", "value": "liken" },
        { "key": "liking", "value": "liken" },
        { "key": "liked", "value": "likened" },
        { "key": "crazy", "value": "loconut" },
        { "key": "either", "value": "eida" },
        { "key": "for", "value": "per" },
        { "key": "forest", "value": "lagreena" },
        { "key": "forests", "value": "lagreenas" },
        { "key": "forest's", "value": "lagreena's" },
        { "key": "long", "value": "longo" },
        { "key": "look", "value": "lookee" },
        { "key": "fodder", "value": "lopity-pie" },
        { "key": "lovely", "value": "luverly" },
        { "key": "love", "value": "luv" },
        { "key": "loves", "value": "luvs" },
        { "key": "maybe", "value": "mabee" },
        { "key": "machines", "value": "machineeks" },
        { "key": "mechanics", "value": "machineeks" },
        { "key": "master", "value": "masteren" },
        { "key": "I think", "value": "metinks" },
        { "key": "might", "value": "might'n" },
        { "key": "My lady", "value": "milady" },
        { "key": "I", "value": "me" },
        { "key": "I'm", "value": "mesa" },
        { "key": "I will", "value": "mesa" },
        { "key": "I'll", "value": "mesa" },
        { "key": "me", "value": "my" },
        { "key": "mine", "value": "meesa" },
        { "key": "missing", "value": "missin'" },
        { "key": "mister", "value": "meester" },
        { "key": "monster", "value": "monstair" },
        { "key": "monsters", "value": "monstairs" },
        { "key": "my my", "value": "mooie-mooie" },
        { "key": "my", "value": "mesa" },
        { "key": "most", "value": "mostest" },
        { "key": "money", "value": "mula" },
        { "key": "more", "value": "mure" },
        { "key": "must have", "value": "musta" },
        { "key": "very", "value": "muy" },
        { "key": "I have", "value": "my've" },
        { "key": "do you need", "value": "needen" },
        { "key": "nine", "value": "ninee" },
        { "key": "return", "value": "combackie" },
        { "key": "no return", "value": "nocombackie" },
        { "key": "nuts", "value": "nutsen" },
        { "key": "oh", "value": "oie" },
        { "key": "oil", "value": "oily" },
        { "key": "ok", "value": "okeyday" },
        { "key": "okay", "value": "okeyday" },
        { "key": "out of", "value": "outta" },
        { "key": "oh", "value": "oyi" },
        { "key": "swimming", "value": "paddlewompy" },
        { "key": "pal", "value": "palo" },
        { "key": "friend", "value": "palo" },
        { "key": "pass", "value": "passa" },
        { "key": "past", "value": "passa" },
        { "key": "troubadour", "value": "singa" },
        { "key": "rippling", "value": "ripplin'" },
        { "key": "ripples", "value": "ripplen" },
        { "key": "dear", "value": "dearee" },
        { "key": "constellation", "value": "skee-shapee" },
        { "key": "constellations", "value": "skee-shapees" },
        { "key": "killed", "value": "crunched" },
        { "key": "running", "value": "runnin'" },
        { "key": "murdered", "value": "pasted" },
        { "key": "dead", "value": "pasted" },
        { "key": "yuck", "value": "pee-yousa" },
        { "key": "pu", "value": "pee-yousa" },
        { "key": "gross", "value": "pee-yousa" },
        { "key": "pretty", "value": "pitty" },
        { "key": "please", "value": "pleasa" },
        { "key": "queen", "value": "queenie" },
        { "key": "representative", "value": "resempative" },
        { "key": "lightsaber", "value": "saber-lighty" },
        { "key": "lightsabers", "value": "saber-lighties" },
        { "key": "light saber", "value": "saber-lighty" },
        { "key": "light sabers", "value": "saber-lighties" },
        { "key": "saved", "value": "sav-ed" },
        { "key": "seat", "value": "seata" },
        { "key": "six", "value": "seeks" },
        { "key": "protection", "value": "tech-shin" },
        { "key": "servant", "value": "servaunt" },
        { "key": "setting", "value": "setten'" },
        { "key": "seven", "value": "sevin" },
        { "key": "every", "value": "ev'ry" },
        { "key": "rain", "value": "sheesh" },
        { "key": "she", "value": "shesa" },
        { "key": "she is", "value": "shesa" },
        { "key": "she's", "value": "shesa" },
        { "key": "sinking", "value": "sink'n" },
        { "key": "sir", "value": "sire" },
        { "key": "shaking", "value": "shakin'" },
        { "key": "sleep", "value": "snooze" },
        { "key": "sleeping", "value": "snoozen'" },
        { "key": "spacecraft", "value": "skeebeetle" },
        { "key": "spaceship", "value": "skeebeetle" },
        { "key": "slippery", "value": "slipidy" },
        { "key": "smiling", "value": "smilen'" },
        { "key": "happy", "value": "heppy" },
        { "key": "say", "value": "spake" },
        { "key": "speak", "value": "spake" },
        { "key": "prod", "value": "spark-ouchee" },
        { "key": "expect", "value": "spect" },
        { "key": "fastest", "value": "speedest" },
        { "key": "spice", "value": "spicen" },
        { "key": "starving", "value": "starvin'" },
        { "key": "swamp", "value": "stickgooshy" },
        { "key": "stuck", "value": "stucken'" },
        { "key": "submerged", "value": "subergify" },
        { "key": "to the", "value": "tooda" },
        { "key": "tale", "value": "tale-o" },
        { "key": "story", "value": "tale-o" },
        { "key": "talking", "value": "talken'" },
        { "key": "talk", "value": "talken'" },
        { "key": "outspeed", "value": "fasta dan" },
        { "key": "outspeeds", "value": "fasta dan" },
        { "key": "than", "value": "dan" },
        { "key": "thank", "value": "tank" },
        { "key": "thanks", "value": "tanks" },
        { "key": "ty", "value": "tank yousa" },
        { "key": "ten", "value": "tenska" },
        { "key": "these", "value": "dese" },
        { "key": "they", "value": "dey" },
        { "key": "they are", "value": "deysa" },
        { "key": "C3PO", "value": "Three-So" },
        { "key": "C-3PO", "value": "Three-So" },
        { "key": "3PO", "value": "Three-So" },
        { "key": "Threepio", "value": "Three-So" },
        { "key": "C3", "value": "Three-So" },
        { "key": "tickling", "value": "ticklin'" },
        { "key": "things", "value": "tings" },
        { "key": "thing", "value": "ting" },
        { "key": "somethings", "value": "sumtings" },
        { "key": "something", "value": "sumting" },
        { "key": "think", "value": "tink" },
        { "key": "thinking", "value": "tinkin'" },
        { "key": "thinks", "value": "tinks" },
        { "key": "eating", "value": "tongue-grabben'" },
        { "key": "dessert", "value": "umi-yumi" },
        { "key": "and", "value": "un" },
        { "key": "one", "value": "una" },
        { "key": "us", "value": "uss-ens" },
        { "key": "what is", "value": "wadsa" },
        { "key": "what's", "value": "wadsa" },
        { "key": "whats", "value": "wadsa" },
        { "key": "gun", "value": "wangzapper" },
        { "key": "laser gun", "value": "wangzapper" },
        { "key": "laser", "value": "wangzapper" },
        { "key": "want", "value": "wanten" },
        { "key": "what was", "value": "was'n" },
        { "key": "watching", "value": "whatch'n" },
        { "key": "reason", "value": "weesong" },
        { "key": "we", "value": "wesa" },
        { "key": "what", "value": "whata" },
        { "key": "what are", "value": "whaten" },
        { "key": "catapult", "value": "whizbooma" },
        { "key": "who", "value": "whosa" },
        { "key": "the", "value": "da" },
        { "key": "with the", "value": "witda" },
        { "key": "with that", "value": "witdat" },
        { "key": "with", "value": "wit" },
        { "key": "robbed", "value": "wobbed" },
        { "key": "wrong", "value": "wrongo" },
        { "key": "rude", "value": "wude" },
        { "key": "attack", "value": "yanzawa" },
        { "key": "charge", "value": "yanzawa" },
        { "key": "yes", "value": "yesa" },
        { "key": "you are a", "value": "yousa" },
        { "key": "you're a", "value": "yousa" },
        { "key": "your a", "value": "yousa" },
        { "key": "you", "value": "yousa" },
        { "key": "your", "value": "yousa" },
        { "key": "youre", "value": "yousa" },
        { "key": "you're", "value": "yousa" },
        { "key": "you'll", "value": "yousa will" },
        { "key": "youll", "value": "yousa will" },
        { "key": "name", "value": "namen" },
        { "key": "are you", "value": "yousa" },
        { "key": "you are", "value": "yousa" },
        { "key": "yup", "value": "yeap" },
        { "key": "zipping", "value": "zippen'" },
        { "key": "school", "value": "skool" },
        { "key": "hush", "value": "hush-hush" },
        { "key": "quiet", "value": "hush-hush" },
        { "key": "dream", "value": "dreamie" },
        { "key": "dreams", "value": "dreamees" },
        { "key": "magic", "value": "magiky" },
        { "key": "enchanted", "value": "'chanted" },
        { "key": "enchant", "value": "'chant" },
        { "key": "unfold", "value": "unfolden" },
        { "key": "moonbeam", "value": "moonzappen" },
        { "key": "weaves", "value": "weaven" },
        { "key": "weave", "value": "weaven" },
        { "key": "silver", "value": "silva" },
        { "key": "gold", "value": "goldee" },
        { "key": "luminescent", "value": "litee-uppee" },
        { "key": "brush", "value": "brushen" },
        { "key": "star", "value": "starsee" },
        { "key": "stars", "value": "starsees" },
        { "key": "beneath", "value": "neathen" },
        { "key": "whisper", "value": "shush-shush'" },
        { "key": "whispering", "value": "shush-shushin'" },
        { "key": "map", "value": "where-ee-goen" },
        { "key": "river", "value": "riva" },
        { "key": "path", "value": "pathen" },
        { "key": "rhyme", "value": "rime" },
        { "key": "paths", "value": "pathens" },
        { "key": "sister", "value": "sista" },
        { "key": "brother", "value": "brotha" },
        { "key": "close", "value": "closen" },
        { "key": "destiny", "value": "futuren" },
        { "key": "future", "value": "futuren" },
        { "key": "poem", "value": "rimery" },
        { "key": "poetry", "value": "rimery" },
        { "key": "cabbage", "value": "greenen-head"},
        { "key": "lettuce", "value": "greenen-head"},
        { "key": "let me", "value": "let mesa"},
        { "key": "once upon a time", "value": "in da timen"},
        { "key": "super", "value": "sooper" },
        { "key": "character", "value": "toon" },
        { "key": "fought", "value": "dude fighten" },
        { "key": "fight", "value": "fighten" },
        { "key": "fighting", "value": "fighten'" },
        { "key": "battle", "value": "ouch time" },
        { "key": "battling", "value": "ouch timen'" },
        { "key": "war", "value": "biggen ouch time" },
        { "key": "territory", "value": "landy" },
        { "key": "territory war", "value": "biggen ouch time per landy" },
        { "key": "tw", "value": "biggen ouch time per landy" },
        { "key": "territory battle", "value": "ouch time per landy" },
        { "key": "tb", "value": "ouch time per landy" },
        { "key": "gac", "value": "biggen 'rena champee" },
        { "key": "ga", "value": "biggen 'rena" },
        { "key": "grand arena", "value": "biggen 'rena" },
        { "key": "grand", "value": "biggen" },
        { "key": "arena", "value": "'rena'" },
        { "key": "galaxy", "value": "galassee" },
        { "key": "far", "value": "farren" },
        { "key": "away", "value": "'way" },
        { "key": "exist", "value": "existen" },
        { "key": "existed", "value": "existen" },
        { "key": "exists", "value": "existen" },
        { "key": "see", "value": "see-en" },
        { "key": "seeing", "value": "see-en'" },
        { "key": "tv", "value": "see-en ting" },
        { "key": "tvs", "value": "see-en tings" },
        { "key": "television", "value": "see-en ting" },
        { "key": "televisions", "value": "see-en tings" },
        { "key": "projector", "value": "show-en ting" },
        { "key": "holoprojector", "value": "show-en ting" },
        { "key": "holoprojector", "value": "show-en tings" },
        { "key": "kid", "value": "toboo nuki" },
        { "key": "child", "value": "toboo nuki" },
        { "key": "boy", "value": "boyo" },
        { "key": "girl", "value": "girlo" },
        { "key": "youngling", "value": "toboo nuki" },
        { "key": "kidding", "value": "kiddin'" },
        { "key": "joking", "value": "kiddin'" },
        { "key": "joke", "value": "yoke" },
        { "key": "promises", "value": "promisen" },
        { "key": "promise", "value": "promisen" },
        { "key": "promising", "value": "promisen'" },
        { "key": "though", "value": "doh" },
        { "key": "Jabba", "value": "Boss Sluggo" },
        { "key": "Jabba the hutt", "value": "Boss Sluggo" },
        { "key": "hutt", "value": "sluggo" },
        { "key": "we're", "value": "wesa" },
        { "key": "we are", "value": "wesa" },
        { "key": "excellent", "value": "bombad" },
        { "key": "awesome", "value": "bombad" },
        { "key": "don't give", "value": "no giben" },
        { "key": "do not give", "value": "no giben" },
        { "key": "give", "value": "giben" },
        { "key": "giving", "value": "giben" },
        { "key": "gives", "value": "gib" },
        { "key": "calculate", "value": "mathen" },
        { "key": "calculating", "value": "mathen" },
        { "key": "gives", "value": "gib" },
        { "key": "kiss", "value": "smooch" },
        { "key": "kissing", "value": "smoochin'" },
        { "key": "affair", "value": "hush-hush smoochin'" },
        { "key": "secret", "value": "top hush-hush" }
    ]
}