{
    "Trip": "TRIPLEZERO",
    "50RT": "50RT",
    "Sortie": "50RT",
    "Sorty": "50RT",
    "AA": "ADMIRALACKBAR",
    "Piett": "ADMIRALPIETT",
    "AP": "ADMIRALPIETT",
    "AdRad": "ADMIRALRADDUS",
    "Arad": "ADMIRALRADDUS",
    "Snips": "AHSOKATANO",
    "FAT": "FULCRUMAHSOKA",
    "AV": "ASAJVENTRESS",
    "B1": "B1BATTLEDROIDV2",
    "B2": "B2SUPERBATTLEDROID",
    "Bast": "BASTILASHAN",
    "Basty": "BASTILASHAN",
    "Basti": "BASTILASHAN",
    "BSF": "BASTILASHANDARK",
    "FBast": "BASTILASHANDARK",
    "Bolo": "BENSOLO",
    "Ben": "BENSOLO",
    "Swolo": "BENSOLO",
    "Biggs": "BIGGSDARKLIGHTER",
    "BF": "BOBAFETT",
    "Scion": "BOBAFETTSCION",
    "BSOJ": "BOBAFETTSCION",
    "SOJ": "BOBAFETTSCION",
    "DBB": "BOBAFETTSCION",
    "OG Bo": "BOKATAN",
    "Bo": "BOKATAN",
    "bkk": "BOKATAN",
    "BKM": "MANDALORBOKATAN",
    "MBK": "MANDALORBOKATAN",
    "EBK": "MANDALORBOKATAN",
    "BK": "MANDALORBOKATAN",
    "Boushh": "BOUSHH",
    "Ordo": "CANDEROUSORDO",
    "CHolo": "HOTHHAN",
    "Cal": "CALKESTIS",
    "CK": "CALKESTIS",
    "CRex": "CAPTAINREX",
    "Cass": "CASSIANANDOR",
    "Cassian": "CASSIANANDOR",
    "Cere": "CEREJUNDA",
    "Chewie": "CHEWBACCALEGENDARY",
    "Chewy": "CHEWBACCALEGENDARY",
    "Chew": "CHEWBACCALEGENDARY",
    "Chop": "CHOPPERS3",
    "Sarge": "CLONESERGEANTPHASEI",
    "CWC": "CLONEWARSCHEWBACCA",
    "CAT": "COMMANDERAHSOKA",
    "CLS": "COMMANDERLUKESKYWALKER",
    "CUP": "CORUSCANTUNDERWORLDPOLICE",
    "5s": "CT5555",
    "Fives": "CT5555",
    "501st Echo": "CT210408",
    "DRey": "DARKREY",
    "DSR": "DARKREY",
    "DarkRey": "DARKREY",
    "Teeth": "DARKREY",
    "ReyDark": "DARKREY",
    "ReyDSV": "DARKREY",
    "ReyD": "DARKREY",
    "DSV": "DARKREY",
    "Dark": "DARKTROOPER",
    "Bane": "DARTHBANE",
    "DB": "DARTHBANE",
    "Malak": "DARTHMALAK",
    "DM": "DARTHMALAK",
    "Malgus": "DARTHMALGUS",
    "Malg": "DARTHMALGUS",
    "DMaul": "MAUL",
    "DN": "DARTHNIHILUS",
    "DR": "DARTHREVAN",
    "Sion": "DARTHSION",
    "DT": "DARTHTALON",
    "DV": "VADER",
    "Death": "DEATHTROOPER",
    "DTP": "DEATHTROOPERPERIDEA",
    "Per": "DEATHTROOPERPERIDEA",
    "DK": "DIRECTORKRENNIC",
    "DDK": "DROIDEKA",
    "BBEcho": "BADBATCHECHO",
    "Enoch": "CAPTAINENOCH",
    "Noc": "CAPTAINENOCH",
    "Noch": "CAPTAINENOCH",
    "CE": "CAPTAINENOCH",
    "8th": "EIGHTHBROTHER",
    "8b": "EIGHTHBROTHER",
    "Palp": "EMPERORPALPATINE",
    "EP": "EMPERORPALPATINE",
    "EzraX": "EZRAEXILE",
    "Ezra Exile": "EZRAEXILE",
    "Exile": "EZRAEXILE",
    "ezx": "EZRAEXILE",
    "ex": "EZRAEXILE",
    "EB": "EZRABRIDGERS3",
    "Fennec": "FENNECSHAND",
    "FS": "FENNECSHAND",
    "5th": "FIFTHBROTHER",
    "5b": "FIFTHBROTHER",
    "FOX": "FIRSTORDEREXECUTIONER",
    "FOO": "FIRSTORDEROFFICERMALE",
    "FOSFTP": "FIRSTORDERSPECIALFORCESPILOT",
    "FOSF": "FIRSTORDERSPECIALFORCESPILOT",
    "FOST": "FIRSTORDERTROOPER",
    "FOTP": "FIRSTORDERTIEPILOT",
    "GG": "GRIEVOUS",
    "Hux": "GENERALHUX",
    "GK": "GENERALKENOBI",
    "Gar": "GARSAXON",
    "GAS": "GENERALSKYWALKER",
    "GBA": "GEONOSIANBROODALPHA",
    "Soldier": "GEONOSIANSOLDIER",
    "Spy": "GEONOSIANSPY",
    "GAT": "GRANDADMIRALTHRAWN",
    "GI": "GRANDINQUISITOR",
    "Leia": "GLLEIA",
    "GLL": "GLLEIA",
    "GLO": "GLLEIA",
    "LO": "GLLEIA",
    "GLLO": "GLLEIA",
    "GM": "GREATMOTHERS",
    "Mothers": "GREATMOTHERS",
    "GMY": "GRANDMASTERYODA",
    "GMT": "GRANDMOFFTARKIN",
    "GS": "GENERALSYNDULLA",
    "Han": "HANSOLO",
    "Hoda": "HERMITYODA",
    "HY": "HERMITYODA",
    "HYoda": "HERMITYODA",
    "HunterMerc": "HUNTERS3",
    "Hunter2": "HUNTERS3",
    "Munter": "HUNTERS3",
    "HK": "HK47",
    "HRS": "HOTHREBELSCOUT",
    "Iden": "IDENVERSIOEMPIRE",
    "IV": "IDENVERSIOEMPIRE",
    "IG88": "IG88",
    "88": "IG88",
    "IGD": "IMAGUNDI",
    "IPD": "IMPERIALPROBEDROID",
    "ISC": "IMPERIALSUPERCOMMANDO",
    "Jabba": "JABBATHEHUTT",
    "JTH": "JABBATHEHUTT",
    "JJB": "JARJARBINKS",
    "JJ": "JARJARBINKS",
    "Jango": "JANGOFETT",
    "JF": "JANGOFETT",
    "JKA": "ANAKINKNIGHT",
    "Ani": "ANAKINKNIGHT",
    "GLAT": "GLAHSOKATANO",
    "GLA": "GLAHSOKATANO",
    "JKCK": "JEDIKNIGHTCAL",
    "JKC": "JEDIKNIGHTCAL",
    "JKCal": "JEDIKNIGHTCAL",
    "JKG": "JEDIKNIGHTGUARDIAN",
    "JKL": "JEDIKNIGHTLUKE",
    "JKR": "JEDIKNIGHTREVAN",
    "JMK": "JEDIMASTERKENOBI",
    "JML": "GRANDMASTERLUKE",
    "JMLS": "GRANDMASTERLUKE",
    "GML": "GRANDMASTERLUKE",
    "Beq": "KELLERANBEQ",
    "KAM": "KIADIMUNDI",
    "Krr": "KRRSANTAN",
    "Kr": "KRRSANTAN",
    "KK": "KYLEKATARN",
    "Kit": "KITFISTO",
    "KF": "KITFISTO",
    "OGKylo": "KYLOREN",
    "Kylo": "KYLOREN",
    "KRU": "KYLORENUNMASKED",
    "L3": "L3_37",
    "LV": "LORDVADER",
    "Lumi": "LUMINARAUNDULI",
    "LU": "LUMINARAUNDULI",
    "Luthen": "LUTHENRAEL",
    "LR": "LUTHENRAEL",
    "MJ": "MARAJADE",
    "MG": "MOFFGIDEONS1",
    "Gid": "MOFFGIDEONS1",
    "DTMG": "MOFFGIDEONS3",
    "DMG": "MOFFGIDEONS3",
    "MM": "MONMOTHMA",
    "Mothma": "MONMOTHMA",
    "Mothmom": "MONMOTHMA",
    "MT": "MOTHERTALZIN",
    "Nass": "BOSSNASS",
    "BN": "BOSSNASS",
    "NSA": "NIGHTSISTERACOLYTE",
    "NSI": "NIGHTSISTERINITIATE",
    "9th": "NINTHSISTER",
    "9s": "NINTHSISTER",
    "Nute": "NUTEGUNRAY",
    "NG": "NUTEGUNRAY",
    "NT": "NIGHTTROOPER",
    "Night": "NIGHTTROOPER",
    "OWK": "OLDBENKENOBI",
    "OBK": "OLDBENKENOBI",
    "BBO": "BADBATCHOMEGA",
    "Oldmega": "BADBATCHOMEGA",
    "OFugitive": "OMEGAS3",
    "Newmega": "OMEGAS3",
    "OF": "OMEGAS3",
    "FugO": "OMEGAS3",
    "Padme": "PADMEAMIDALA",
    "Pad": "PADMEAMIDALA",
    "POW": "PADAWANOBIWAN",
    "POBW": "PADAWANOBIWAN",
    "PSW": "PADAWANSABINE",
    "PS": "PADAWANSABINE",
    "Paz": "PAZVIZSLA",
    "Pez": "PAZVIZSLA",
    "Rex": "CT7567",
    "Poe": "POE",
    "Poggle": "POGGLETHELESSER",
    "QA": "QUEENAMIDALA",
    "Ami": "QUEENAMIDALA",
    "QGJ": "QUIGONJINN",
    "MQG": "MASTERQUIGON",
    "R2": "R2D2_LEGENDARY",
    "Range": "RANGETROOPER",
    "ROLO": "HOTHLEIA",
    "RHF": "EPIXFINN",
    "RHP": "EPIXPOE",
    "RT": "RESISTANCETROOPER",
    "RJT": "REYJEDITRAINING",
    "JTR": "REYJEDITRAINING",
    "ScavRey": "REY",
    "SRey": "REY",
    "Scabbies": "REY",
    "Scabrey": "REY",
    "RG": "ROYALGUARD",
    "SO": "SAVAGEOPRESS",
    "SRP": "SCARIFREBEL",
    "2nd": "SECONDSISTER",
    "2s": "SECONDSISTER",
    "7th": "SEVENTHSISTER",
    "7s": "SEVENTHSISTER",
    "ST": "SHAAKTI",
    "Shin": "SHINHATI",
    "Hati": "SHINHATI",
    "SH": "SHINHATI",
    "Shore": "SHORETROOPER",
    "SAss": "SITHASSASSIN",
    "Ass": "SITHASSASSIN",
    "SET": "SITHTROOPER",
    "SEE": "SITHPALPATINE",
    "SM": "SITHMARAUDER",
    "Red": "FOSITHTROOPER",
    "Tampon": "FOSITHTROOPER",
    "FOSiT": "FOSITHTROOPER",
    "RedTrooper": "FOSITHTROOPER",
    "Skiff": "UNDERCOVERLANDO",
    "Skando": "UNDERCOVERLANDO",
    "Snow": "SNOWTROOPER",
    "SK": "STARKILLER",
    "Storm": "STORMTROOPER",
    "StHan": "STORMTROOPERHAN",
    "SF": "SUNFAC",
    "Fac": "SUNFAC",
    "SLK": "SUPREMELEADERKYLOREN",
    "SLKR": "SUPREMELEADERKYLOREN",
    "T3": "T3_M4",
    "Tarpals": "CAPTAINTARPALS",
    "Tarp": "CAPTAINTARPALS",
    "Tech": "BADBATCHTECH",
    "BBTech": "BADBATCHTECH",
    "Hunter": "BADBATCHHUNTER",
    "BBHunter": "BADBATCHHUNTER",
    "Mando": "THEMANDALORIAN",
    "BAM": "THEMANDALORIANBESKARARMOR",
    "Reva": "THIRDSISTER",
    "3S": "THIRDSISTER",
    "3rd": "THIRDSISTER",
    "Chewpio": "C3POCHEWBACCA",
    "3PAC": "C3POCHEWBACCA",
    "TFP": "TIEFIGHTERPILOT",
    "Uro": "URORRURRR",
    "Ur": "URORRURRR",
    "Vandor": "YOUNGCHEWBACCA",
    "VC": "YOUNGCHEWBACCA",
    "VetChew": "SMUGGLERCHEWBACCA",
    "VetChewy": "SMUGGLERCHEWBACCA",
    "VetChewie": "SMUGGLERCHEWBACCA",
    "VetHan": "SMUGGLERHAN",
    "Wat": "WATTAMBOR",
    "Wedge": "WEDGEANTILLES",
    "Wrecker": "BADBATCHWRECKER",
    "BBWrecker": "BADBATCHWRECKER",
    "Yolo": "YOUNGHAN",
    "Yando": "YOUNGLANDO",
    "Z": "ZAALBAR",
    "BigZ": "ZAALBAR",

    "SnipsShip": "JEDISTARFIGHTERAHSOKATANO",
    "Eta": "JEDISTARFIGHTERANAKIN",
    "Eta2": "JEDISTARFIGHTERANAKIN",
    "SB": "SITHBOMBER",
    "B28": "SITHBOMBER",
    "Sith Bomber": "SITHBOMBER",
    "Biggs's X-Wing": "XWGINRED2",
    "BiggsShip": "XWINGRED3",
    "Red3": "XWINGRED3",
    "BTL": "YWINGCLONEWARS",
    "BLT": "YWINGCLONEWARS",
    "Chim": "CAPITALCHIMAERA",
    "EH": "EBONHAWK",
    "Palpmobile": "EMPERORSSHUTTLE",
    "Executor": "CAPITALEXECUTOR",
    "Exec": "CAPITALEXECUTOR",
    "FOSFTF": "TIEFIGHTERFOSF",
    "Fury": "FURYCLASSINTERCEPTOR",
    "SFTF": "TIEFIGHTERFOSF",
    "SFTie": "TIEFIGHTERFOSF",
    "FOTF": "TIEFIGHTERFIRSTORDER",
    "FOTie": "TIEFIGHTERFIRSTORDER",
    "SoldierShip": "GEONOSIANSTARFIGHTER2",
    "SpyShip": "GEONOSIANSTARFIGHTER3",
    "HMF": "MILLENNIUMFALCON",
    "H1": "CAPITALMONCALAMARICRUISER",
    "Home1": "CAPITALMONCALAMARICRUISER",
    "HT": "HOUNDSTOOTH",
    "Hyena": "HYENABOMBER",
    "HB": "HYENABOMBER",
    "IG2K": "IG2000",
    "ITB": "TIEBOMBERIMPERIAL",
    "ITF": "TIEFIGHTERIMPERIAL",
    "JC": "JEDISTARFIGHTERCONSULAR",
    "KCS": "COMMANDSHUTTLE",
    "LMF": "MILLENNIUMFALCONPRISTINE",
    "Lev": "CAPITALLEVIATHAN",
    "Levi": "CAPITALLEVIATHAN",
    "Mal": "CAPITALMALEVOLENCE",
    "Marauder": "MARAUDER",
    "BBM": "MARAUDER",
    "Mk6": "SITHSUPREMACYCLASS",
    "Mark6": "SITHSUPREMACYCLASS",
    "MkVI": "SITHSUPREMACYCLASS",
    "Nego": "CAPITALNEGOTIATOR",
    "P1": "PUNISHINGONE",
    "pone": "PUNISHINGONE",
    "pun": "PUNISHINGONE",
    "Plo": "BLADEOFDORIN",
    "PoeShip": "XWINGBLACKONE",
    "Prof": "CAPITALPROFUNDITY",
    "RC": "RAZORCREST",
    "Claw": "RAVENSCLAW",
    "RYW": "YWINGREBEL",
    "RP": "XWINGRESISTANCE",
    "RexShip": "ARC170REX",
    "RMF": "MILLENNIUMFALCONEP7",
    "Scim": "SITHINFILTRATOR",
    "StunFac": "GEONOSIANSTARFIGHTER1",
    "Tax1": "TIEADVANCED",
    "Taxi": "TIEADVANCED",
    "Ech": "FIRSTORDERTIEECHELON",
    "Reaper": "TIEREAPER",
    "Silencer": "TIESILENCER",
    "Sil": "TIESILENCER",
    "Slicer": "TIESILENCER",
    "Slave1": "SLAVE1",
    "S1": "SLAVE1",
    "Interceptor": "TIEINTERCEPTOR",
    "Int": "TIEINTERCEPTOR",
    "Umbaran": "UMBARANSTARFIGHTER",
    "Umb": "UMBARANSTARFIGHTER",
    "5sShip": "UMBARANSTARFIGHTER",
    "VD": "VULTUREDROID",
    "Wedge's X-Wing": "XWINGRED2",
    "Red2": "XWINGRED2",
    "XB": "XANADUBLOOD"
}