[
  "Wooo hwa hwa? ('Nice weather, eh?')",
  "Wua ga ma uma ahuma ooma. ('I think my arm has been pulled out of the socket.')",
  "Roooarrgh ur roo. ('I have a bad feeling about this.')",
  "RRRrrruurgh! Arrggg! ('I'm not happy about this situation.')",
  "Grrraooowww gruhhh... ('Stay on target...')",
  "Rhawk-Arrgh, rrrooaarrgghh ('May all the forces be with you!')",
  "Whoaaaa. Waa maa. Warrgh. ('Pardon me, I need to rest my neck muscles.')",
  "Waa hu aa ma ma a oo gah? ('Why did you pick on someone one fourth your size?')",
  "Waag mam ga moo. ('The food is good.')",
  "Wu yaga gah ahyag. ('I would like a drink, please.')",
  "Wugaga hu uwamma Woohiee wa-ah? ('Who was that Wookiee I saw you with last night?')",
  "Yu guwah mah oowhama? ('Do you have a salve to kill these parasites?')",
  "Aarrr wwgggh waah. ('Jump to hyperspace.')",
  "Aaaarrr wgh ggwaaah. ('I'm feeling motion sick.')",
  "Wwwah rrroooaaah wha? ('Want to play holochess?')",
  "Ruuhr-ahr ahhowww gruh-row-ow. ('Let's try some blue-sky thinking.')",
  "Arrrrrwrrrrrronnkkk raarrh ('Is the air-conditioning actually on in this building?')",
  "Aaawww rooowwr rrrraahhhrr ('Turn the page, and let's begin!')",
  "Mu hu mwa gaa. ('I cannot talk on the comlink right now.')",
  "Uoo waa gaa moo. ('It is mealtime.')",
  "Mu ah waa gaa a yukshin oid. ('I already have a suction droid.')",
  "My agah ya mawah. ('I do not want an in-home demonstration.')",
  "Huwaa muaa mumwa. ('Can I buy you a drink?')",
  "Yaag ruggwah maw huah huah? ('How do you give your fur that shine?')",
  "Ruh gwyaaaag. ('I am a friend.')",
  "Rrrrugh arah-ah-woof? ('How do you take your coffee?')"
]